^D:\REPOZYTORIA\FLUID-SYMULATION\FLUID-GDNATIVE\FLUID.CPP
/c /ZI /JMC /nologo /W3 /WX- /diagnostics:column /sdl /Od /D _DEBUG /D _CONSOLE /D _UNICODE /D UNICODE /Gm- /EHsc /RTC1 /MDd /GS /fp:precise /permissive- /Zc:wchar_t /Zc:forScope /Zc:inline /Fo"X64\DEBUG\\" /Fd"X64\DEBUG\VC142.PDB" /Gd /TP /FC D:\REPOZYTORIA\FLUID-SYMULATION\FLUID-GDNATIVE\FLUID.CPP
^D:\REPOZYTORIA\FLUID-SYMULATION\FLUID-GDNATIVE\FLUIDLIB.CPP
/c /ZI /JMC /nologo /W3 /WX- /diagnostics:column /sdl /Od /D _DEBUG /D _CONSOLE /D _UNICODE /D UNICODE /Gm- /EHsc /RTC1 /MDd /GS /fp:precise /permissive- /Zc:wchar_t /Zc:forScope /Zc:inline /Fo"X64\DEBUG\\" /Fd"X64\DEBUG\VC142.PDB" /Gd /TP /FC D:\REPOZYTORIA\FLUID-SYMULATION\FLUID-GDNATIVE\FLUIDLIB.CPP
